[{"IBAN":"FR18 5212 1348 50VJ 5Y0Y E1QC 424","user_id":1,"balance":7748504.0},
{"IBAN":"GR86 8948 144F YMRF WFA9 IMVY ZZH","user_id":2,"balance":4137679.2},
{"IBAN":"IL02 3671 9475 0786 5338 471","user_id":3,"balance":4296783.99},
{"IBAN":"FR15 5260 2008 80IK BQIP A79S D63","user_id":4,"balance":133953.75},
{"IBAN":"FR71 2812 0138 62UQ AB8P ELMZ D70","user_id":5,"balance":1965166.12},
{"IBAN":"SI59 1044 7617 5714 336","user_id":6,"balance":1978089.81},
{"IBAN":"FR88 4148 1553 73BL O9ZM LYDS U18","user_id":7,"balance":5697830.44},
{"IBAN":"CH17 4914 2D76 TYY1 OYB2 F","user_id":8,"balance":329495.62},
{"IBAN":"NO61 4363 3382 842","user_id":9,"balance":2124856.96},
{"IBAN":"ES77 9962 1303 7394 8050 7618","user_id":10,"balance":3818204.0},
{"IBAN":"SI07 5750 9361 8992 998","user_id":11,"balance":1444740.35},
{"IBAN":"FI30 7939 0855 6026 74","user_id":12,"balance":2101761.27},
{"IBAN":"MR33 2668 8610 3808 7740 1615 705","user_id":13,"balance":7744393.54},
{"IBAN":"MD33 DNXM 6TMK 2BUW 2YOM DMZ2","user_id":14,"balance":7718316.0},
{"IBAN":"SA72 04ZL FRVC B2KD MKFK KTXY","user_id":15,"balance":5386752.0},
{"IBAN":"LU87 313H QTZD YKGO I7JL","user_id":16,"balance":3027120.07},
{"IBAN":"MD07 ULPD EP9U C1R7 UWDR JR4W","user_id":17,"balance":4953834.0},
{"IBAN":"GL92 4462 8952 1367 61","user_id":18,"balance":3638322.0},
{"IBAN":"FR18 0222 7635 25P4 HEBM PI6N X90","user_id":19,"balance":7423119.0},
{"IBAN":"PT80 8884 1219 6570 2578 0919 2","user_id":20,"balance":1085435.98},
{"IBAN":"LU24 495C WQLG DAV4 VSJD","user_id":21,"balance":5605741.0},
{"IBAN":"FR55 8604 2648 14YZ UWNB 4HLE P74","user_id":22,"balance":1025934.96},
{"IBAN":"GE57 SI39 7664 8485 6093 81","user_id":23,"balance":5957061.0},
{"IBAN":"BA54 8294 2424 4951 8093","user_id":24,"balance":217616.11},
{"IBAN":"HR62 4763 9266 7277 2938 9","user_id":25,"balance":6220340.0},
{"IBAN":"FR66 0113 2454 02Z8 43QZ 55LZ E67","user_id":26,"balance":1704876.53},
{"IBAN":"GR55 4990 661L YUW8 PTBA Y0IJ TFV","user_id":27,"balance":1399267.74},
{"IBAN":"HR51 9875 2150 0480 9275 8","user_id":28,"balance":4178351.03},
{"IBAN":"PL39 4998 5388 8933 6836 7472 3581","user_id":29,"balance":7617588.72},
{"IBAN":"CY03 4143 9517 SVPN 1QDU 5XRE H2YY","user_id":30,"balance":7403819.0},
{"IBAN":"DO11 LD19 1956 8222 0045 1596 8066","user_id":31,"balance":6512782.44},
{"IBAN":"EE18 8104 7328 4197 8214","user_id":32,"balance":972265.53},
{"IBAN":"FO97 2584 4757 4823 17","user_id":33,"balance":3209876.04},
{"IBAN":"SK77 3112 4657 1620 9186 0415","user_id":34,"balance":2594794.94},
{"IBAN":"DE11 5895 8619 7291 8843 76","user_id":35,"balance":6064732.0},
{"IBAN":"FR91 8306 9899 81Y0 C4PG MHIC 114","user_id":36,"balance":20602.37},
{"IBAN":"TR75 5428 5TUH QLSA 4ELM XTYU GD","user_id":37,"balance":4671039.0},
{"IBAN":"GB98 SDIQ 0482 5191 2928 47","user_id":38,"balance":5295471.0},
{"IBAN":"PT61 5212 6411 8247 7643 1868 4","user_id":39,"balance":2942804.77},
{"IBAN":"ME25 3387 9812 3536 4434 41","user_id":40,"balance":3665725.55},
{"IBAN":"MC42 7335 7276 23DE JPJ0 4VJN Y13","user_id":41,"balance":6019141.0},
{"IBAN":"GE85 FO06 0862 4925 6915 32","user_id":42,"balance":2094128.93},
{"IBAN":"GB70 DMFU 8456 6940 1642 27","user_id":43,"balance":692783.79},
{"IBAN":"EE20 0429 5871 3049 1230","user_id":44,"balance":50206.12},
{"IBAN":"FR60 2921 0186 70AJ LPBY SKPJ J92","user_id":45,"balance":7045866.0},
{"IBAN":"BG21 BKPB 5352 18EH GXZW MZ","user_id":46,"balance":4683704.0},
{"IBAN":"FO91 6215 9457 7722 16","user_id":47,"balance":6971865.0},
{"IBAN":"LU13 710M HGUD LV9B WU4P","user_id":48,"balance":3761361.58},
{"IBAN":"BH58 VQKD XWHA SCR9 DIER 9D","user_id":49,"balance":315609.98},
{"IBAN":"FR26 6554 4809 25RK XW6Z VMG5 T50","user_id":50,"balance":1156731.68},
{"IBAN":"FR33 7654 5824 84DQ 9NP5 7XX9 D34","user_id":51,"balance":6772720.65},
{"IBAN":"FR48 0320 0983 41MC 3DUD HORB D56","user_id":52,"balance":2387255.89},
{"IBAN":"MK83 7038 EORS V2CS K11","user_id":53,"balance":4140093.66},
{"IBAN":"GL71 8428 8479 8181 97","user_id":54,"balance":4531667.0},
{"IBAN":"LI56 0350 3CCW XE61 O4XP U","user_id":55,"balance":2525660.48},
{"IBAN":"BR46 9354 3571 1633 0089 2125 788Q C","user_id":56,"balance":6775010.35},
{"IBAN":"NO84 1153 9458 028","user_id":57,"balance":1572382.56},
{"IBAN":"TR77 8883 81MK TJ8J XACV N4FE OP","user_id":58,"balance":2280302.0},
{"IBAN":"FR11 4436 8885 42G8 0QCP MOSP S66","user_id":59,"balance":6691775.76},
{"IBAN":"FR42 4663 5803 24EE N5CR XBXR C36","user_id":60,"balance":573673.46},
{"IBAN":"LB72 8655 VACG 8A8D XVM5 TYCA HLJU","user_id":61,"balance":1593320.72},
{"IBAN":"FR43 6719 6640 26OD LHIL DHMT X79","user_id":62,"balance":1708643.75},
{"IBAN":"BG56 VBKU 4737 1603 XSPE 4X","user_id":63,"balance":4636852.0},
{"IBAN":"TN62 6945 5425 2792 8538 9635","user_id":64,"balance":3600730.59},
{"IBAN":"IT50 G685 8306 3665 SATO QBK7 BHF","user_id":65,"balance":2990548.84},
{"IBAN":"PL15 9856 6199 0484 2435 0403 8253","user_id":66,"balance":4896026.57},
{"IBAN":"FR02 9965 4548 49U9 PJUK Z69M X46","user_id":67,"balance":798520.13},
{"IBAN":"GT50 B1Q1 UPOC M3XT MHCY JEIF KYK6","user_id":68,"balance":6494274.0},
{"IBAN":"BH89 FNLA VXJT EWML DI1B QQ","user_id":69,"balance":6594481.75},
{"IBAN":"SE16 8521 8198 5922 6678 8991","user_id":70,"balance":7155490.86},
{"IBAN":"FI84 0448 2129 7059 28","user_id":71,"balance":7057754.55},
{"IBAN":"FO86 4331 1548 4623 12","user_id":72,"balance":7015505.0},
{"IBAN":"IL40 9278 2308 3900 0346 304","user_id":73,"balance":2624399.0},
{"IBAN":"IT45 J950 9206 385S WUDK UIP4 V6E","user_id":74,"balance":3884897.0},
{"IBAN":"FR92 8095 9945 69JR TNJM O1YG Z88","user_id":75,"balance":3597311.3},
{"IBAN":"MC74 8651 0947 01OA DLAA XLCO K74","user_id":76,"balance":6595515.32},
{"IBAN":"SK23 6739 7696 8898 2629 8089","user_id":77,"balance":1400076.93},
{"IBAN":"RO94 QLJD EUWQ 8VAK CZIM UXJK","user_id":78,"balance":3873469.58},
{"IBAN":"FR34 5008 4057 58JT DTBE OSES T60","user_id":79,"balance":5942630.85},
{"IBAN":"RO55 VMWO QTJF MFR9 T1L6 UVKO","user_id":80,"balance":5288298.48},
{"IBAN":"NL16 EDGT 8757 6517 09","user_id":81,"balance":6768636.9},
{"IBAN":"DK15 6571 5013 7730 72","user_id":82,"balance":355818.56},
{"IBAN":"FR39 8270 0042 56IU EV0I CMTN H07","user_id":83,"balance":407601.89},
{"IBAN":"DE78 5780 1772 4507 1467 03","user_id":84,"balance":2158200.0},
{"IBAN":"GL88 9112 0492 8073 82","user_id":85,"balance":5686879.52},
{"IBAN":"CH45 4036 3ETT KZ1F 3XLM L","user_id":86,"balance":3091608.56},
{"IBAN":"FI28 8472 5030 0315 39","user_id":87,"balance":1031605.36},
{"IBAN":"AL68 8115 2066 PNWC 5BTP COAC JRSQ","user_id":88,"balance":7662653.9},
{"IBAN":"CR87 9704 7212 8638 8437 0","user_id":89,"balance":7697706.04},
{"IBAN":"CY30 3473 5147 4FLE J5QT MURS SKZB","user_id":90,"balance":5070946.0},
{"IBAN":"KZ90 1182 VFE1 WARS TAF4","user_id":91,"balance":6907710.0},
{"IBAN":"BA44 2397 9893 9591 2179","user_id":92,"balance":856535.65},
{"IBAN":"BA22 3998 4568 6974 8221","user_id":93,"balance":3537321.22},
{"IBAN":"TR80 2964 5I39 YK1W 3E3A IARW PC","user_id":94,"balance":3674415.0},
{"IBAN":"PL15 1592 5593 7810 6182 6140 6615","user_id":95,"balance":6837749.0},
{"IBAN":"PT87 6351 0520 5095 1651 3996 2","user_id":96,"balance":6640340.0},
{"IBAN":"FR27 5904 6353 38YI NAQA FBK6 Q63","user_id":97,"balance":7906951.72},
{"IBAN":"BG05 CVJE 9342 97HG 3EVV 21","user_id":98,"balance":1850262.25},
{"IBAN":"BR14 3500 4897 6926 4143 0001 665T T","user_id":99,"balance":2711102.56},
{"IBAN":"IE97 HHFC 7377 5695 2986 69","user_id":100,"balance":4424488.61}]